<?xml version="1.0" standalone="no"?>
<!DOCTYPE svg PUBLIC "-//W3C//DTD SVG 20010904//EN"
 "http://www.w3.org/TR/2001/REC-SVG-20010904/DTD/svg10.dtd">
<svg version="1.0" xmlns="http://www.w3.org/2000/svg"
 width="700.000000pt" height="700.000000pt" viewBox="0 0 700.000000 700.000000"
 preserveAspectRatio="xMidYMid meet">
<metadata>
Created by potrace 1.11, written by Peter Selinger 2001-2013
</metadata>
<g transform="translate(0.000000,700.000000) scale(0.100000,-0.100000)"
fill="#000000" stroke="none">
<path d="M160 3500 l0 -3340 3340 0 3340 0 0 3340 0 3340 -3340 0 -3340 0 0
-3340z m3150 2335 l0 -595 -1100 0 -1100 0 0 -185 0 -185 1100 0 1100 0 0
-590 0 -590 -1370 0 -1370 0 0 1370 0 1370 1370 0 1370 0 0 -595z m1560 -775
l0 -1370 -590 0 -590 0 0 1370 0 1370 590 0 590 0 0 -1370z m1560 0 l0 -1370
-595 0 -595 0 0 1370 0 1370 595 0 595 0 0 -1370z m-3845 -1772 c-219 -115
-2007 -1038 -2011 -1038 -2 0 -4 239 -4 530 l0 530 1028 0 1027 -1 -40 -21z
m3845 -1348 l0 -1370 -1370 0 -1370 0 0 1370 0 1370 1370 0 1370 0 0 -1370z
m-3122 -643 l-3 -655 -1258 651 -1258 650 93 49 c51 26 617 319 1258 650
l1165 603 3 -647 c1 -355 1 -941 0 -1301z m-1644 -221 c528 -273 962 -499 965
-501 2 -3 -460 -5 -1027 -5 l-1032 0 0 535 0 535 68 -34 c37 -19 499 -257
1026 -530z"/>
<path d="M4925 2221 c-111 -53 -175 -152 -175 -272 0 -89 23 -149 81 -213 64
-70 129 -99 224 -99 175 -1 309 133 308 308 0 95 -29 160 -99 224 -95 87 -225
107 -339 52z"/>
</g>
</svg>
